{
  "swagger": "2.0",
  "info": {
    "title": "user.proto",
    "version": "version not set"
  },
  "schemes": [
    "http",
    "https"
  ],
  "consumes": [
    "application/json"
  ],
  "produces": [
    "application/json"
  ],
  "paths": {},
  "definitions": {
    "apiRole": {
      "type": "string",
      "enum": [
        "ADMIN",
        "MEMBER"
      ],
      "default": "ADMIN"
    },
    "apiUser": {
      "type": "object",
      "properties": {
        "id": {
          "type": "integer",
          "format": "int64"
        },
        "role": {
          "$ref": "#/definitions/apiRole"
        },
        "create_date": {
          "type": "string",
          "format": "date-time"
        }
      }
    },
    "protobufAny": {
      "type": "object",
      "properties": {
        "type_url": {
          "type": "string"
        },
        "value": {
          "type": "string",
          "format": "byte"
        }
      }
    },
    "runtimeStreamError": {
      "type": "object",
      "properties": {
        "grpc_code": {
          "type": "integer",
          "format": "int32"
        },
        "http_code": {
          "type": "integer",
          "format": "int32"
        },
        "message": {
          "type": "string"
        },
        "http_status": {
          "type": "string"
        },
        "details": {
          "type": "array",
          "items": {
            "$ref": "#/definitions/protobufAny"
          }
        }
      }
    }
  },
  "x-stream-definitions": {
    "apiUser": {
      "type": "object",
      "properties": {
        "result": {
          "$ref": "#/definitions/apiUser"
        },
        "error": {
          "$ref": "#/definitions/runtimeStreamError"
        }
      },
      "title": "Stream result of apiUser"
    }
  }
}
